25
26
37
23
31
27
35
24
16
18
16
11
19
10
9
25
15
11
7
11
14
15
12
8
11
12
16
10
14
10
6
11
7
7
7
6
7
6
9
9
15
7
7
9
8
7
7
9
7
6
6
8
5
8
6
6
6
9
6
7
7
7
7
6
6
6
8
5
6
5
6
8
7
7
5
5
6
5
5
5
6
6
5
6
6
5
5
5
5
6
5
5
5
5
5
5
5
6
5
5
